Started by timer
 > git rev-parse --resolve-git-dir /var/lib/jenkins/caches/git-4b342aa38dc45e9cb282133662065df1/.git # timeout=10
Setting origin to https://gitlab.com/Pablo-Minio/desafio-15.git
 > git config remote.origin.url https://gitlab.com/Pablo-Minio/desafio-15.git # timeout=10
Fetching origin...
Fetching upstream changes from origin
 > git --version # timeout=10
 > git --version # 'git version 2.34.1'
 > git config --get remote.origin.url # timeout=10
 > git fetch --tags --force --progress -- origin +refs/heads/*:refs/remotes/origin/* # timeout=10
Seen branch in repository origin/main
Seen 1 remote branch
Obtained Jenkinsfile from 63ff35f85f53e1416bf7f35112eb77b73a3af6bb
[Pipeline] Start of Pipeline
[Pipeline] node
Running on Jenkins in /var/lib/jenkins/workspace/Pipeline-Calculadora_main
[Pipeline] {
[Pipeline] stage
[Pipeline] { (Declarative: Checkout SCM)
[Pipeline] checkout
Selected Git installation does not exist. Using Default
The recommended git tool is: NONE
No credentials specified
 > git rev-parse --resolve-git-dir /var/lib/jenkins/workspace/Pipeline-Calculadora_main/.git # timeout=10
Fetching changes from the remote Git repository
 > git config remote.origin.url https://gitlab.com/Pablo-Minio/desafio-15.git # timeout=10
Fetching without tags
Fetching upstream changes from https://gitlab.com/Pablo-Minio/desafio-15.git
 > git --version # timeout=10
 > git --version # 'git version 2.34.1'
 > git fetch --no-tags --force --progress -- https://gitlab.com/Pablo-Minio/desafio-15.git +refs/heads/*:refs/remotes/origin/* # timeout=10
Checking out Revision 63ff35f85f53e1416bf7f35112eb77b73a3af6bb (main)
 > git config core.sparsecheckout # timeout=10
 > git checkout -f 63ff35f85f53e1416bf7f35112eb77b73a3af6bb # timeout=10
Commit message: "Update Jenkinsfile"
 > git rev-list --no-walk 63ff35f85f53e1416bf7f35112eb77b73a3af6bb # timeout=10
[Pipeline] }
[Pipeline] // stage
[Pipeline] withEnv
[Pipeline] {
[Pipeline] withCredentials
Masking supported pattern matches of $DOCKERHUB_CREDENTIALS or $DOCKERHUB_CREDENTIALS_PSW
[Pipeline] {
[Pipeline] withEnv
[Pipeline] {
[Pipeline] stage
[Pipeline] { (Linting)
[Pipeline] echo
 ** Testeo de Hadolint **
[Pipeline] sh
+ hadolint Dockerfile
[Pipeline] }
[Pipeline] // stage
[Pipeline] stage
[Pipeline] { (Docker build)
[Pipeline] script
[Pipeline] {
[Pipeline] echo
 ** Verificamos el estado del contenedor **
[Pipeline] sh
+ docker ps -q -f name=Jenkins
df71a3afaad3
[Pipeline] echo
El contenedor Jenkins estaba en ejecucion. Lo detenemos y eliminamos
[Pipeline] sh
+ docker stop Jenkins
Jenkins
[Pipeline] sh
+ docker rm Jenkins
Jenkins
[Pipeline] }
[Pipeline] // script
[Pipeline] }
[Pipeline] // stage
[Pipeline] stage
[Pipeline] { (Docker run)
[Pipeline] echo
 ** Ejecutamos el contenedor **
[Pipeline] sh
+ docker run --name Jenkins -p 80:80 -d pabloagustinm/calculadora:jenkins
c75c3f40d9d3c5bf421cd1fd7d1c3e8757f4becc06000a55a724f2121380b9b5
[Pipeline] }
[Pipeline] // stage
[Pipeline] stage
[Pipeline] { (Trivy)
[Pipeline] echo
 ** Testeo de Trivy **
[Pipeline] sh
+ trivy pabloagustinm/calculadora:jenkins
2023-12-17T19:50:05.874Z	[34mINFO[0m	Detected OS: debian
2023-12-17T19:50:05.874Z	[34mINFO[0m	Detecting Debian vulnerabilities...
2023-12-17T19:50:05.898Z	[34mINFO[0m	Number of PL dependency files: 1
2023-12-17T19:50:05.898Z	[34mINFO[0m	Detecting jar vulnerabilities...

pabloagustinm/calculadora:jenkins (debian 12.2)
===============================================
Total: 88 (UNKNOWN: 10, LOW: 9, MEDIUM: 43, HIGH: 23, CRITICAL: 3)

+------------------+------------------+----------+-------------------+---------------+-----------------------------------------+
|     LIBRARY      | VULNERABILITY ID | SEVERITY | INSTALLED VERSION | FIXED VERSION |                  TITLE                  |
+------------------+------------------+----------+-------------------+---------------+-----------------------------------------+
| apt              | CVE-2011-3374    | LOW      | 2.6.1             |               | It was found that apt-key in apt,       |
|                  |                  |          |                   |               | all versions, do not correctly...       |
|                  |                  |          |                   |               | -->avd.aquasec.com/nvd/cve-2011-3374    |
+------------------+------------------+----------+-------------------+---------------+-----------------------------------------+
| bsdutils         | CVE-2022-0563    | MEDIUM   | 2.38.1-5          |               | util-linux: partial disclosure          |
|                  |                  |          |                   |               | of arbitrary files in chfn              |
|                  |                  |          |                   |               | and chsh when compiled...               |
|                  |                  |          |                   |               | -->avd.aquasec.com/nvd/cve-2022-0563    |
+------------------+------------------+          +-------------------+---------------+-----------------------------------------+
| coreutils        | CVE-2016-2781    |          | 9.1-1             |               | coreutils: Non-privileged               |
|                  |                  |          |                   |               | session can escape to the               |
|                  |                  |          |                   |               | parent session in chroot                |
|                  |                  |          |                   |               | -->avd.aquasec.com/nvd/cve-2016-2781    |
+                  +------------------+          +                   +---------------+-----------------------------------------+
|                  | CVE-2017-18018   |          |                   |               | coreutils: race condition               |
|                  |                  |          |                   |               | vulnerability in chown and chgrp        |
|                  |                  |          |                   |               | -->avd.aquasec.com/nvd/cve-2017-18018   |
+------------------+------------------+          +-------------------+---------------+-----------------------------------------+
| gcc-12-base      | CVE-2022-27943   |          | 12.2.0-14         |               | binutils: libiberty/rust-demangle.c     |
|                  |                  |          |                   |               | in GNU GCC 11.2 allows stack            |
|                  |                  |          |                   |               | exhaustion in demangle_const            |
|                  |                  |          |                   |               | -->avd.aquasec.com/nvd/cve-2022-27943   |
+------------------+------------------+----------+-------------------+---------------+-----------------------------------------+
| libapt-pkg6.0    | CVE-2011-3374    | LOW      | 2.6.1             |               | It was found that apt-key in apt,       |
|                  |                  |          |                   |               | all versions, do not correctly...       |
|                  |                  |          |                   |               | -->avd.aquasec.com/nvd/cve-2011-3374    |
+------------------+------------------+----------+-------------------+---------------+-----------------------------------------+
| libblkid1        | CVE-2022-0563    | MEDIUM   | 2.38.1-5          |               | util-linux: partial disclosure          |
|                  |                  |          |                   |               | of arbitrary files in chfn              |
|                  |                  |          |                   |               | and chsh when compiled...               |
|                  |                  |          |                   |               | -->avd.aquasec.com/nvd/cve-2022-0563    |
+------------------+------------------+----------+-------------------+---------------+-----------------------------------------+
| libc-bin         | CVE-2019-1010022 | CRITICAL | 2.36-9+deb12u3    |               | glibc: stack guard protection bypass    |
|                  |                  |          |                   |               | -->avd.aquasec.com/nvd/cve-2019-1010022 |
+                  +------------------+----------+                   +---------------+-----------------------------------------+
|                  | CVE-2018-20796   | HIGH     |                   |               | glibc: uncontrolled recursion in        |
|                  |                  |          |                   |               | function check_dst_limits_calc_pos_1    |
|                  |                  |          |                   |               | in posix/regexec.c                      |
|                  |                  |          |                   |               | -->avd.aquasec.com/nvd/cve-2018-20796   |
+                  +------------------+          +                   +---------------+-----------------------------------------+
|                  | CVE-2019-1010023 |          |                   |               | glibc: running ldd on malicious ELF     |
|                  |                  |          |                   |               | leads to code execution because of...   |
|                  |                  |          |                   |               | -->avd.aquasec.com/nvd/cve-2019-1010023 |
+                  +------------------+          +                   +---------------+-----------------------------------------+
|                  | CVE-2019-9192    |          |                   |               | glibc: uncontrolled recursion in        |
|                  |                  |          |                   |               | function check_dst_limits_calc_pos_1    |
|                  |                  |          |                   |               | in posix/regexec.c                      |
|                  |                  |          |                   |               | -->avd.aquasec.com/nvd/cve-2019-9192    |
+                  +------------------+----------+                   +---------------+-----------------------------------------+
|                  | CVE-2010-4756    | MEDIUM   |                   |               | glibc: glob implementation              |
|                  |                  |          |                   |               | can cause excessive CPU and             |
|                  |                  |          |                   |               | memory consumption due to...            |
|                  |                  |          |                   |               | -->avd.aquasec.com/nvd/cve-2010-4756    |
+                  +------------------+          +                   +---------------+-----------------------------------------+
|                  | CVE-2019-1010024 |          |                   |               | glibc: ASLR bypass using                |
|                  |                  |          |                   |               | cache of thread stack and heap          |
|                  |                  |          |                   |               | -->avd.aquasec.com/nvd/cve-2019-1010024 |
+                  +------------------+          +                   +---------------+-----------------------------------------+
|                  | CVE-2019-1010025 |          |                   |               | glibc: information disclosure of heap   |
|                  |                  |          |                   |               | addresses of pthread_created thread     |
|                  |                  |          |                   |               | -->avd.aquasec.com/nvd/cve-2019-1010025 |
+------------------+------------------+----------+                   +---------------+-----------------------------------------+
| libc6            | CVE-2019-1010022 | CRITICAL |                   |               | glibc: stack guard protection bypass    |
|                  |                  |          |                   |               | -->avd.aquasec.com/nvd/cve-2019-1010022 |
+                  +------------------+----------+                   +---------------+-----------------------------------------+
|                  | CVE-2018-20796   | HIGH     |                   |               | glibc: uncontrolled recursion in        |
|                  |                  |          |                   |               | function check_dst_limits_calc_pos_1    |
|                  |                  |          |                   |               | in posix/regexec.c                      |
|                  |                  |          |                   |               | -->avd.aquasec.com/nvd/cve-2018-20796   |
+                  +------------------+          +                   +---------------+-----------------------------------------+
|                  | CVE-2019-1010023 |          |                   |               | glibc: running ldd on malicious ELF     |
|                  |                  |          |                   |               | leads to code execution because of...   |
|                  |                  |          |                   |               | -->avd.aquasec.com/nvd/cve-2019-1010023 |
+                  +------------------+          +                   +---------------+-----------------------------------------+
|                  | CVE-2019-9192    |          |                   |               | glibc: uncontrolled recursion in        |
|                  |                  |          |                   |               | function check_dst_limits_calc_pos_1    |
|                  |                  |          |                   |               | in posix/regexec.c                      |
|                  |                  |          |                   |               | -->avd.aquasec.com/nvd/cve-2019-9192    |
+                  +------------------+----------+                   +---------------+-----------------------------------------+
|                  | CVE-2010-4756    | MEDIUM   |                   |               | glibc: glob implementation              |
|                  |                  |          |                   |               | can cause excessive CPU and             |
|                  |                  |          |                   |               | memory consumption due to...            |
|                  |                  |          |                   |               | -->avd.aquasec.com/nvd/cve-2010-4756    |
+                  +------------------+          +                   +---------------+-----------------------------------------+
|                  | CVE-2019-1010024 |          |                   |               | glibc: ASLR bypass using                |
|                  |                  |          |                   |               | cache of thread stack and heap          |
|                  |                  |          |                   |               | -->avd.aquasec.com/nvd/cve-2019-1010024 |
+                  +------------------+          +                   +---------------+-----------------------------------------+
|                  | CVE-2019-1010025 |          |                   |               | glibc: information disclosure of heap   |
|                  |                  |          |                   |               | addresses of pthread_created thread     |
|                  |                  |          |                   |               | -->avd.aquasec.com/nvd/cve-2019-1010025 |
+------------------+------------------+          +-------------------+---------------+-----------------------------------------+
| libgcc-s1        | CVE-2022-27943   |          | 12.2.0-14         |               | binutils: libiberty/rust-demangle.c     |
|                  |                  |          |                   |               | in GNU GCC 11.2 allows stack            |
|                  |                  |          |                   |               | exhaustion in demangle_const            |
|                  |                  |          |                   |               | -->avd.aquasec.com/nvd/cve-2022-27943   |
+------------------+------------------+----------+-------------------+---------------+-----------------------------------------+
| libgcrypt20      | CVE-2018-6829    | HIGH     | 1.10.1-3          |               | libgcrypt: ElGamal implementation       |
|                  |                  |          |                   |               | doesn't have semantic security due      |
|                  |                  |          |                   |               | to incorrectly encoded plaintexts...    |
|                  |                  |          |                   |               | -->avd.aquasec.com/nvd/cve-2018-6829    |
+------------------+------------------+----------+-------------------+---------------+-----------------------------------------+
| libgnutls30      | CVE-2011-3389    | MEDIUM   | 3.7.9-2           |               | HTTPS: block-wise chosen-plaintext      |
|                  |                  |          |                   |               | attack against SSL/TLS (BEAST)          |
|                  |                  |          |                   |               | -->avd.aquasec.com/nvd/cve-2011-3389    |
+------------------+------------------+----------+-------------------+---------------+-----------------------------------------+
| libgssapi-krb5-2 | CVE-2018-5709    | HIGH     | 1.20.1-2+deb12u1  |               | krb5: integer overflow                  |
|                  |                  |          |                   |               | in dbentry->n_key_data                  |
|                  |                  |          |                   |               | in kadmin/dbutil/dump.c                 |
|                  |                  |          |                   |               | -->avd.aquasec.com/nvd/cve-2018-5709    |
+                  +------------------+----------+                   +---------------+-----------------------------------------+
|                  | CVE-2004-0971    | LOW      |                   |               | security flaw                           |
|                  |                  |          |                   |               | -->avd.aquasec.com/nvd/cve-2004-0971    |
+------------------+------------------+----------+-------------------+---------------+-----------------------------------------+
| libjbig0         | CVE-2017-9937    | MEDIUM   | 2.1-6.1           |               | libtiff: memory malloc failure          |
|                  |                  |          |                   |               | in tif_jbig.c could cause DOS.          |
|                  |                  |          |                   |               | -->avd.aquasec.com/nvd/cve-2017-9937    |
+------------------+------------------+----------+-------------------+---------------+-----------------------------------------+
| libk5crypto3     | CVE-2018-5709    | HIGH     | 1.20.1-2+deb12u1  |               | krb5: integer overflow                  |
|                  |                  |          |                   |               | in dbentry->n_key_data                  |
|                  |                  |          |                   |               | in kadmin/dbutil/dump.c                 |
|                  |                  |          |                   |               | -->avd.aquasec.com/nvd/cve-2018-5709    |
+                  +------------------+----------+                   +---------------+-----------------------------------------+
|                  | CVE-2004-0971    | LOW      |                   |               | security flaw                           |
|                  |                  |          |                   |               | -->avd.aquasec.com/nvd/cve-2004-0971    |
+------------------+------------------+----------+                   +---------------+-----------------------------------------+
| libkrb5-3        | CVE-2018-5709    | HIGH     |                   |               | krb5: integer overflow                  |
|                  |                  |          |                   |               | in dbentry->n_key_data                  |
|                  |                  |          |                   |               | in kadmin/dbutil/dump.c                 |
|                  |                  |          |                   |               | -->avd.aquasec.com/nvd/cve-2018-5709    |
+                  +------------------+----------+                   +---------------+-----------------------------------------+
|                  | CVE-2004-0971    | LOW      |                   |               | security flaw                           |
|                  |                  |          |                   |               | -->avd.aquasec.com/nvd/cve-2004-0971    |
+------------------+------------------+----------+                   +---------------+-----------------------------------------+
| libkrb5support0  | CVE-2018-5709    | HIGH     |                   |               | krb5: integer overflow                  |
|                  |                  |          |                   |               | in dbentry->n_key_data                  |
|                  |                  |          |                   |               | in kadmin/dbutil/dump.c                 |
|                  |                  |          |                   |               | -->avd.aquasec.com/nvd/cve-2018-5709    |
+                  +------------------+----------+                   +---------------+-----------------------------------------+
|                  | CVE-2004-0971    | LOW      |                   |               | security flaw                           |
|                  |                  |          |                   |               | -->avd.aquasec.com/nvd/cve-2004-0971    |
+------------------+------------------+----------+-------------------+---------------+-----------------------------------------+
| libldap-2.5-0    | CVE-2017-17740   | HIGH     | 2.5.13+dfsg-5     |               | openldap:                               |
|                  |                  |          |                   |               | contrib/slapd-modules/nops/nops.c       |
|                  |                  |          |                   |               | attempts to free stack buffer           |
|                  |                  |          |                   |               | allowing remote attackers to cause...   |
|                  |                  |          |                   |               | -->avd.aquasec.com/nvd/cve-2017-17740   |
+                  +------------------+----------+                   +---------------+-----------------------------------------+
|                  | CVE-2015-3276    | MEDIUM   |                   |               | openldap: incorrect multi-keyword       |
|                  |                  |          |                   |               | mode cipherstring parsing               |
|                  |                  |          |                   |               | -->avd.aquasec.com/nvd/cve-2015-3276    |
+                  +------------------+          +                   +---------------+-----------------------------------------+
|                  | CVE-2017-14159   |          |                   |               | openldap: Privilege escalation          |
|                  |                  |          |                   |               | via PID file manipulation               |
|                  |                  |          |                   |               | -->avd.aquasec.com/nvd/cve-2017-14159   |
+                  +------------------+          +                   +---------------+-----------------------------------------+
|                  | CVE-2020-15719   |          |                   |               | openldap: Certificate                   |
|                  |                  |          |                   |               | validation incorrectly                  |
|                  |                  |          |                   |               | matches name against CN-ID              |
|                  |                  |          |                   |               | -->avd.aquasec.com/nvd/cve-2020-15719   |
+------------------+------------------+          +-------------------+---------------+-----------------------------------------+
| libmount1        | CVE-2022-0563    |          | 2.38.1-5          |               | util-linux: partial disclosure          |
|                  |                  |          |                   |               | of arbitrary files in chfn              |
|                  |                  |          |                   |               | and chsh when compiled...               |
|                  |                  |          |                   |               | -->avd.aquasec.com/nvd/cve-2022-0563    |
+------------------+------------------+          +-------------------+---------------+-----------------------------------------+
| libpng16-16      | CVE-2021-4214    |          | 1.6.39-2          |               | libpng: hardcoded value                 |
|                  |                  |          |                   |               | leads to heap-overflow                  |
|                  |                  |          |                   |               | -->avd.aquasec.com/nvd/cve-2021-4214    |
+------------------+------------------+          +-------------------+---------------+-----------------------------------------+
| libsmartcols1    | CVE-2022-0563    |          | 2.38.1-5          |               | util-linux: partial disclosure          |
|                  |                  |          |                   |               | of arbitrary files in chfn              |
|                  |                  |          |                   |               | and chsh when compiled...               |
|                  |                  |          |                   |               | -->avd.aquasec.com/nvd/cve-2022-0563    |
+------------------+------------------+----------+-------------------+---------------+-----------------------------------------+
| libssl3          | CVE-2023-0286    | HIGH     | 3.0.11-1~deb12u2  |               | X.400 address type confusion            |
|                  |                  |          |                   |               | in X.509 GeneralName                    |
|                  |                  |          |                   |               | -->avd.aquasec.com/nvd/cve-2023-0286    |
+                  +------------------+----------+                   +---------------+-----------------------------------------+
|                  | CVE-2007-6755    | MEDIUM   |                   |               | Dual_EC_DRBG: weak pseudo               |
|                  |                  |          |                   |               | random number generator                 |
|                  |                  |          |                   |               | -->avd.aquasec.com/nvd/cve-2007-6755    |
+                  +------------------+          +                   +---------------+-----------------------------------------+
|                  | CVE-2010-0928    |          |                   |               | openssl: RSA authentication weakness    |
|                  |                  |          |                   |               | -->avd.aquasec.com/nvd/cve-2010-0928    |
+                  +------------------+          +                   +---------------+-----------------------------------------+
|                  | CVE-2022-4304    |          |                   |               | Timing Oracle in RSA Decryption         |
|                  |                  |          |                   |               | -->avd.aquasec.com/nvd/cve-2022-4304    |
+                  +------------------+          +                   +---------------+-----------------------------------------+
|                  | CVE-2022-4450    |          |                   |               | Double free after                       |
|                  |                  |          |                   |               | calling PEM_read_bio_ex                 |
|                  |                  |          |                   |               | -->avd.aquasec.com/nvd/cve-2022-4450    |
+                  +------------------+          +                   +---------------+-----------------------------------------+
|                  | CVE-2023-0215    |          |                   |               | Use-after-free                          |
|                  |                  |          |                   |               | following BIO_new_NDEF                  |
|                  |                  |          |                   |               | -->avd.aquasec.com/nvd/cve-2023-0215    |
+                  +------------------+----------+                   +---------------+-----------------------------------------+
|                  | CVE-2022-4203    | UNKNOWN  |                   |               | -->avd.aquasec.com/nvd/cve-2022-4203    |
+                  +------------------+          +                   +---------------+-----------------------------------------+
|                  | CVE-2023-0216    |          |                   |               | -->avd.aquasec.com/nvd/cve-2023-0216    |
+                  +------------------+          +                   +---------------+-----------------------------------------+
|                  | CVE-2023-0217    |          |                   |               | -->avd.aquasec.com/nvd/cve-2023-0217    |
+                  +------------------+          +                   +---------------+-----------------------------------------+
|                  | CVE-2023-0401    |          |                   |               | -->avd.aquasec.com/nvd/cve-2023-0401    |
+------------------+------------------+----------+-------------------+---------------+-----------------------------------------+
| libstdc++6       | CVE-2022-27943   | MEDIUM   | 12.2.0-14         |               | binutils: libiberty/rust-demangle.c     |
|                  |                  |          |                   |               | in GNU GCC 11.2 allows stack            |
|                  |                  |          |                   |               | exhaustion in demangle_const            |
|                  |                  |          |                   |               | -->avd.aquasec.com/nvd/cve-2022-27943   |
+------------------+------------------+----------+-------------------+---------------+-----------------------------------------+
| libsystemd0      | CVE-2013-4392    | LOW      | 252.17-1~deb12u1  |               | systemd: TOCTOU race condition          |
|                  |                  |          |                   |               | when updating file permissions          |
|                  |                  |          |                   |               | and SELinux security contexts...        |
|                  |                  |          |                   |               | -->avd.aquasec.com/nvd/cve-2013-4392    |
+------------------+------------------+----------+-------------------+---------------+-----------------------------------------+
| libtiff6         | CVE-2017-9117    | CRITICAL | 4.5.0-6           |               | libtiff: Heap-based buffer              |
|                  |                  |          |                   |               | over-read in bmp2tiff                   |
|                  |                  |          |                   |               | -->avd.aquasec.com/nvd/cve-2017-9117    |
+                  +------------------+----------+                   +---------------+-----------------------------------------+
|                  | CVE-2017-16232   | HIGH     |                   |               | libtiff: Memory leaks in                |
|                  |                  |          |                   |               | tif_open.c, tif_lzw.c, and tif_aux.c    |
|                  |                  |          |                   |               | -->avd.aquasec.com/nvd/cve-2017-16232   |
+                  +------------------+          +                   +---------------+-----------------------------------------+
|                  | CVE-2017-17973   |          |                   |               | libtiff: heap-based use after           |
|                  |                  |          |                   |               | free in tiff2pdf.c:t2p_writeproc        |
|                  |                  |          |                   |               | -->avd.aquasec.com/nvd/cve-2017-17973   |
+                  +------------------+          +                   +---------------+-----------------------------------------+
|                  | CVE-2017-5563    |          |                   |               | libtiff: Heap-buffer overflow           |
|                  |                  |          |                   |               | in LZWEncode tif_lzw.c                  |
|                  |                  |          |                   |               | -->avd.aquasec.com/nvd/cve-2017-5563    |
+                  +------------------+----------+                   +---------------+-----------------------------------------+
|                  | CVE-2014-8130    | MEDIUM   |                   |               | libtiff: divide by zero                 |
|                  |                  |          |                   |               | in the tiffdither tool                  |
|                  |                  |          |                   |               | -->avd.aquasec.com/nvd/cve-2014-8130    |
+                  +------------------+          +                   +---------------+-----------------------------------------+
|                  | CVE-2018-10126   |          |                   |               | libtiff: NULL pointer dereference       |
|                  |                  |          |                   |               | in the jpeg_fdct_16x16                  |
|                  |                  |          |                   |               | function in jfdctint.c                  |
|                  |                  |          |                   |               | -->avd.aquasec.com/nvd/cve-2018-10126   |
+                  +------------------+          +                   +---------------+-----------------------------------------+
|                  | CVE-2022-1056    |          |                   |               | Out-of-bounds Read error in             |
|                  |                  |          |                   |               | tiffcrop in libtiff 4.3.0               |
|                  |                  |          |                   |               | allows attackers to cause...            |
|                  |                  |          |                   |               | -->avd.aquasec.com/nvd/cve-2022-1056    |
+                  +------------------+          +                   +---------------+-----------------------------------------+
|                  | CVE-2022-1210    |          |                   |               | tiff: Malicious file leads to a         |
|                  |                  |          |                   |               | denial of service in TIFF File...       |
|                  |                  |          |                   |               | -->avd.aquasec.com/nvd/cve-2022-1210    |
+------------------+------------------+----------+-------------------+---------------+-----------------------------------------+
| libudev1         | CVE-2013-4392    | LOW      | 252.17-1~deb12u1  |               | systemd: TOCTOU race condition          |
|                  |                  |          |                   |               | when updating file permissions          |
|                  |                  |          |                   |               | and SELinux security contexts...        |
|                  |                  |          |                   |               | -->avd.aquasec.com/nvd/cve-2013-4392    |
+------------------+------------------+----------+-------------------+---------------+-----------------------------------------+
| libuuid1         | CVE-2022-0563    | MEDIUM   | 2.38.1-5          |               | util-linux: partial disclosure          |
|                  |                  |          |                   |               | of arbitrary files in chfn              |
|                  |                  |          |                   |               | and chsh when compiled...               |
|                  |                  |          |                   |               | -->avd.aquasec.com/nvd/cve-2022-0563    |
+------------------+------------------+----------+-------------------+---------------+-----------------------------------------+
| libwebp7         | CVE-2016-9085    | LOW      | 1.2.4-0.2+deb12u1 |               | libwebp: Several integer overflows      |
|                  |                  |          |                   |               | -->avd.aquasec.com/nvd/cve-2016-9085    |
+------------------+------------------+----------+-------------------+---------------+-----------------------------------------+
| libxslt1.1       | CVE-2015-9019    | MEDIUM   | 1.1.35-1          |               | libxslt: math.random() in               |
|                  |                  |          |                   |               | xslt uses unseeded randomness           |
|                  |                  |          |                   |               | -->avd.aquasec.com/nvd/cve-2015-9019    |
+------------------+------------------+----------+-------------------+---------------+-----------------------------------------+
| login            | CVE-2019-19882   | HIGH     | 1:4.13+dfsg1-1    |               | shadow-utils: local users can           |
|                  |                  |          |                   |               | obtain root access because setuid       |
|                  |                  |          |                   |               | programs are misconfigured...           |
|                  |                  |          |                   |               | -->avd.aquasec.com/nvd/cve-2019-19882   |
+                  +------------------+----------+                   +---------------+-----------------------------------------+
|                  | CVE-2007-5686    | MEDIUM   |                   |               | initscripts in rPath Linux 1            |
|                  |                  |          |                   |               | sets insecure permissions for           |
|                  |                  |          |                   |               | the /var/log/btmp file,...              |
|                  |                  |          |                   |               | -->avd.aquasec.com/nvd/cve-2007-5686    |
+                  +------------------+----------+                   +---------------+-----------------------------------------+
|                  | CVE-2023-0634    | UNKNOWN  |                   |               | An uncontrolled process                 |
|                  |                  |          |                   |               | operation was found in the              |
|                  |                  |          |                   |               | newgrp command provided by...           |
|                  |                  |          |                   |               | -->avd.aquasec.com/nvd/cve-2023-0634    |
+------------------+------------------+----------+-------------------+---------------+-----------------------------------------+
| mount            | CVE-2022-0563    | MEDIUM   | 2.38.1-5          |               | util-linux: partial disclosure          |
|                  |                  |          |                   |               | of arbitrary files in chfn              |
|                  |                  |          |                   |               | and chsh when compiled...               |
|                  |                  |          |                   |               | -->avd.aquasec.com/nvd/cve-2022-0563    |
+------------------+------------------+----------+-------------------+---------------+-----------------------------------------+
| nginx            | CVE-2013-0337    | HIGH     | 1.25.3-1~bookworm |               | The default configuration of nginx,     |
|                  |                  |          |                   |               | possibly 1.3.13 and earlier, uses       |
|                  |                  |          |                   |               | world-readable permissions...           |
|                  |                  |          |                   |               | -->avd.aquasec.com/nvd/cve-2013-0337    |
+                  +------------------+----------+                   +---------------+-----------------------------------------+
|                  | CVE-2009-4487    | MEDIUM   |                   |               | nginx: Absent sanitation of             |
|                  |                  |          |                   |               | escape sequences in web server log      |
|                  |                  |          |                   |               | -->avd.aquasec.com/nvd/cve-2009-4487    |
+------------------+------------------+----------+-------------------+---------------+-----------------------------------------+
| openssl          | CVE-2023-0286    | HIGH     | 3.0.11-1~deb12u2  |               | X.400 address type confusion            |
|                  |                  |          |                   |               | in X.509 GeneralName                    |
|                  |                  |          |                   |               | -->avd.aquasec.com/nvd/cve-2023-0286    |
+                  +------------------+----------+                   +---------------+-----------------------------------------+
|                  | CVE-2007-6755    | MEDIUM   |                   |               | Dual_EC_DRBG: weak pseudo               |
|                  |                  |          |                   |               | random number generator                 |
|                  |                  |          |                   |               | -->avd.aquasec.com/nvd/cve-2007-6755    |
+                  +------------------+          +                   +---------------+-----------------------------------------+
|                  | CVE-2010-0928    |          |                   |               | openssl: RSA authentication weakness    |
|                  |                  |          |                   |               | -->avd.aquasec.com/nvd/cve-2010-0928    |
+                  +------------------+          +                   +---------------+-----------------------------------------+
|                  | CVE-2022-4304    |          |                   |               | Timing Oracle in RSA Decryption         |
|                  |                  |          |                   |               | -->avd.aquasec.com/nvd/cve-2022-4304    |
+                  +------------------+          +                   +---------------+-----------------------------------------+
|                  | CVE-2022-4450    |          |                   |               | Double free after                       |
|                  |                  |          |                   |               | calling PEM_read_bio_ex                 |
|                  |                  |          |                   |               | -->avd.aquasec.com/nvd/cve-2022-4450    |
+                  +------------------+          +                   +---------------+-----------------------------------------+
|                  | CVE-2023-0215    |          |                   |               | Use-after-free                          |
|                  |                  |          |                   |               | following BIO_new_NDEF                  |
|                  |                  |          |                   |               | -->avd.aquasec.com/nvd/cve-2023-0215    |
+                  +------------------+----------+                   +---------------+-----------------------------------------+
|                  | CVE-2022-4203    | UNKNOWN  |                   |               | -->avd.aquasec.com/nvd/cve-2022-4203    |
+                  +------------------+          +                   +---------------+-----------------------------------------+
|                  | CVE-2023-0216    |          |                   |               | -->avd.aquasec.com/nvd/cve-2023-0216    |
+                  +------------------+          +                   +---------------+-----------------------------------------+
|                  | CVE-2023-0217    |          |                   |               | -->avd.aquasec.com/nvd/cve-2023-0217    |
+                  +------------------+          +                   +---------------+-----------------------------------------+
|                  | CVE-2023-0401    |          |                   |               | -->avd.aquasec.com/nvd/cve-2023-0401    |
+------------------+------------------+----------+-------------------+---------------+-----------------------------------------+
| passwd           | CVE-2019-19882   | HIGH     | 1:4.13+dfsg1-1    |               | shadow-utils: local users can           |
|                  |                  |          |                   |               | obtain root access because setuid       |
|                  |                  |          |                   |               | programs are misconfigured...           |
|                  |                  |          |                   |               | -->avd.aquasec.com/nvd/cve-2019-19882   |
+                  +------------------+----------+                   +---------------+-----------------------------------------+
|                  | CVE-2007-5686    | MEDIUM   |                   |               | initscripts in rPath Linux 1            |
|                  |                  |          |                   |               | sets insecure permissions for           |
|                  |                  |          |                   |               | the /var/log/btmp file,...              |
|                  |                  |          |                   |               | -->avd.aquasec.com/nvd/cve-2007-5686    |
+                  +------------------+----------+                   +---------------+-----------------------------------------+
|                  | CVE-2023-0634    | UNKNOWN  |                   |               | An uncontrolled process                 |
|                  |                  |          |                   |               | operation was found in the              |
|                  |                  |          |                   |               | newgrp command provided by...           |
|                  |                  |          |                   |               | -->avd.aquasec.com/nvd/cve-2023-0634    |
+------------------+------------------+----------+-------------------+---------------+-----------------------------------------+
| perl-base        | CVE-2011-4116    | HIGH     | 5.36.0-7          |               | perl: File::Temp insecure               |
|                  |                  |          |                   |               | temporary file handling                 |
|                  |                  |          |                   |               | -->avd.aquasec.com/nvd/cve-2011-4116    |
+------------------+------------------+          +-------------------+---------------+-----------------------------------------+
| tar              | CVE-2005-2541    |          | 1.34+dfsg-1.2     |               | tar: does not properly warn the user    |
|                  |                  |          |                   |               | when extracting setuid or setgid...     |
|                  |                  |          |                   |               | -->avd.aquasec.com/nvd/cve-2005-2541    |
+                  +------------------+          +                   +---------------+-----------------------------------------+
|                  | CVE-2022-48303   |          |                   |               | tar: a heap buffer overflow             |
|                  |                  |          |                   |               | at from_header() in list.c              |
|                  |                  |          |                   |               | via specially crafter...                |
|                  |                  |          |                   |               | -->avd.aquasec.com/nvd/cve-2022-48303   |
+------------------+------------------+----------+-------------------+---------------+-----------------------------------------+
| util-linux       | CVE-2022-0563    | MEDIUM   | 2.38.1-5          |               | util-linux: partial disclosure          |
|                  |                  |          |                   |               | of arbitrary files in chfn              |
|                  |                  |          |                   |               | and chsh when compiled...               |
|                  |                  |          |                   |               | -->avd.aquasec.com/nvd/cve-2022-0563    |
+------------------+                  +          +                   +---------------+                                         +
| util-linux-extra |                  |          |                   |               |                                         |
|                  |                  |          |                   |               |                                         |
|                  |                  |          |                   |               |                                         |
|                  |                  |          |                   |               |                                         |
+------------------+------------------+----------+-------------------+---------------+-----------------------------------------+
[Pipeline] }
[Pipeline] // stage
[Pipeline] stage
[Pipeline] { (Testing App)
[Pipeline] echo
 ** Testeamos la aplicacion haciendo una request al puerto 80 **
[Pipeline] sh
+ curl -s -o /dev/null -w %{http_code} http://localhost:80
200
[Pipeline] }
[Pipeline] // stage
[Pipeline] stage
[Pipeline] { (Docker Login)
[Pipeline] echo
 ** Nos logueamos en DockerHub **
[Pipeline] sh
Warning: A secret was passed to "sh" using Groovy String interpolation, which is insecure.
		 Affected argument(s) used the following variable(s): [DOCKERHUB_CREDENTIALS_PSW]
		 See https://jenkins.io/redirect/groovy-string-interpolation for details.
+ echo ****
+ docker login -u pabloagustinm --password-stdin
WARNING! Your password will be stored unencrypted in /var/lib/jenkins/.docker/config.json.
Configure a credential helper to remove this warning. See
https://docs.docker.com/engine/reference/commandline/login/#credentials-store

Login Succeeded
[Pipeline] }
[Pipeline] // stage
[Pipeline] stage
[Pipeline] { (Docker Push)
[Pipeline] echo
 ** Subimos la imagen a DockerHub **
[Pipeline] sh
+ docker push pabloagustinm/calculadora:jenkins
The push refers to repository [docker.io/pabloagustinm/calculadora]
24d492e4d933: Preparing
6843348ef510: Preparing
0d0e9c83b6f7: Preparing
cddc309885a2: Preparing
c2d3ab485d1b: Preparing
66283570f41b: Preparing
f5525891d9e9: Preparing
8ae474e0cc8f: Preparing
92770f546e06: Preparing
66283570f41b: Waiting
f5525891d9e9: Waiting
8ae474e0cc8f: Waiting
92770f546e06: Waiting
c2d3ab485d1b: Layer already exists
6843348ef510: Layer already exists
0d0e9c83b6f7: Layer already exists
cddc309885a2: Layer already exists
24d492e4d933: Layer already exists
8ae474e0cc8f: Layer already exists
66283570f41b: Layer already exists
f5525891d9e9: Layer already exists
92770f546e06: Layer already exists
jenkins: digest: sha256:db6eafc69731839dd9462e22a5df02ba4dda0f9c94c790f53fbad931d66ccc09 size: 2194
[Pipeline] }
[Pipeline] // stage
[Pipeline] }
[Pipeline] // withEnv
[Pipeline] }
[Pipeline] // withCredentials
[Pipeline] }
[Pipeline] // withEnv
[Pipeline] }
[Pipeline] // node
[Pipeline] End of Pipeline
Finished: SUCCESS